<?xml version="1.0" encoding="UTF-8"?>
<svg viewBox="0 0 947 472" version="1.1" xmlns="http://www.w3.org/2000/svg" xmlns:xlink="http://www.w3.org/1999/xlink">
    <!-- Generator: Sketch 47.1 (45422) - http://www.bohemiancoding.com/sketch -->
    <title>Arrows</title>
    <desc>Created with Sketch.</desc>
    <defs>
        <linearGradient x1="100%" y1="50%" x2="0%" y2="50%" id="linearGradient-1">
            <stop stop-color="#F9E0A5" offset="0%"></stop>
            <stop stop-color="#7F721B" offset="100%"></stop>
        </linearGradient>
        <path d="M49,63 L49,63 L49,63 C53.418278,63 57,66.581722 57,71 L57,801.946753 L56.9999383,801.946753 C56.9999383,804.176814 55.1921172,805.984635 52.9620568,805.984635 C51.0322713,805.984635 49.3722239,804.619141 49,802.725594 C49,802.725594 49,802.725594 49,802.725594 C49,802.725594 49,802.725594 49,802.725594 L49,802.725594 C48.455773,804.901222 46.2508952,806.223733 44.0752676,805.679506 C42.2678434,805.227384 40.9999767,803.603299 40.9999767,801.740184 L41,71 L41,71 C41,66.581722 44.581722,63 49,63 Z" id="path-2"></path>
        <linearGradient x1="49.0234375%" y1="99.0234375%" x2="49.0234375%" y2="0.9765625%" id="linearGradient-3">
            <stop stop-color="#FFFFFF" offset="0%"></stop>
            <stop stop-color="#A79898" offset="100%"></stop>
        </linearGradient>
        <linearGradient x1="49.0234375%" y1="0.9765625%" x2="49.0234375%" y2="99.0234375%" id="linearGradient-4">
            <stop stop-color="#FFFFFF" offset="0%"></stop>
            <stop stop-color="#A79898" offset="100%"></stop>
        </linearGradient>
        <linearGradient x1="49.0234375%" y1="1.59795333%" x2="49.0234375%" y2="99.0234375%" id="linearGradient-5">
            <stop stop-color="#FADBAE" offset="0%"></stop>
            <stop stop-color="#907558" offset="100%"></stop>
        </linearGradient>
        <path d="M49,63 L49,63 L49,63 C53.418278,63 57,66.581722 57,71 L57,801.946753 L56.9999383,801.946753 C56.9999383,804.176814 55.1921172,805.984635 52.9620568,805.984635 C51.0322713,805.984635 49.3722239,804.619141 49,802.725594 C49,802.725594 49,802.725594 49,802.725594 C49,802.725594 49,802.725594 49,802.725594 L49,802.725594 C48.455773,804.901222 46.2508952,806.223733 44.0752676,805.679506 C42.2678434,805.227384 40.9999767,803.603299 40.9999767,801.740184 L41,71 L41,71 C41,66.581722 44.581722,63 49,63 Z" id="path-6"></path>
        <path d="M49,63 L49,63 L49,63 C53.418278,63 57,66.581722 57,71 L57,801.946753 L56.9999383,801.946753 C56.9999383,804.176814 55.1921172,805.984635 52.9620568,805.984635 C51.0322713,805.984635 49.3722239,804.619141 49,802.725594 C49,802.725594 49,802.725594 49,802.725594 C49,802.725594 49,802.725594 49,802.725594 L49,802.725594 C48.455773,804.901222 46.2508952,806.223733 44.0752676,805.679506 C42.2678434,805.227384 40.9999767,803.603299 40.9999767,801.740184 L41,71 L41,71 C41,66.581722 44.581722,63 49,63 Z" id="path-7"></path>
        <path d="M49,63 L49,63 L49,63 C53.418278,63 57,66.581722 57,71 L57,801.946753 L56.9999383,801.946753 C56.9999383,804.176814 55.1921172,805.984635 52.9620568,805.984635 C51.0322713,805.984635 49.3722239,804.619141 49,802.725594 C49,802.725594 49,802.725594 49,802.725594 C49,802.725594 49,802.725594 49,802.725594 L49,802.725594 C48.455773,804.901222 46.2508952,806.223733 44.0752676,805.679506 C42.2678434,805.227384 40.9999767,803.603299 40.9999767,801.740184 L41,71 L41,71 C41,66.581722 44.581722,63 49,63 Z" id="path-8"></path>
        <path d="M49,63 L49,63 L49,63 C53.418278,63 57,66.581722 57,71 L57,801.946753 L56.9999383,801.946753 C56.9999383,804.176814 55.1921172,805.984635 52.9620568,805.984635 C51.0322713,805.984635 49.3722239,804.619141 49,802.725594 C49,802.725594 49,802.725594 49,802.725594 C49,802.725594 49,802.725594 49,802.725594 L49,802.725594 C48.455773,804.901222 46.2508952,806.223733 44.0752676,805.679506 C42.2678434,805.227384 40.9999767,803.603299 40.9999767,801.740184 L41,71 L41,71 C41,66.581722 44.581722,63 49,63 Z" id="path-9"></path>
    </defs>
    <g id="Page-1" stroke="none" stroke-width="1" fill="none" fill-rule="evenodd">
        <g id="Arrows" transform="translate(-2.000000, -41.000000)">
            <g id="Arrow" transform="translate(508.000000, 310.000000) rotate(77.000000) translate(-508.000000, -310.000000) translate(459.000000, -101.000000)">
                <g id="Rectangle">
                    <use fill="url(#linearGradient-1)" fill-rule="evenodd" xlink:href="#path-2"></use>
                    <path stroke="#979797" stroke-width="1" d="M49,63.5 C44.8578644,63.5 41.5,66.8578644 41.5,71 L41.4999767,801.740184 C41.4999767,803.373891 42.6117292,804.798 44.1966026,805.194452 C46.104342,805.671667 48.03773,804.511999 48.5149455,802.604259 L49.0585404,800.431158 L49.4906108,802.629152 C49.8167432,804.288227 51.2712314,805.484635 52.9620568,805.484635 C54.9159688,805.484635 56.499946,803.900674 56.5,801.946753 L56.5,71 C56.5,66.8578644 53.1421356,63.5 49,63.5 Z"></path>
                </g>
                <g id="Group" stroke="#979797">
                    <path d="M98,0 C98,58.6075503 98,96.9089784 98,114.904285 C89.4066774,101.43375 66.7153846,147.906057 49,114.904285 C67.2999644,118.425857 71.8308939,108.234744 62.5927885,84.3309444 C69.3238245,80.092147 76.2558936,69.4781335 83.3889957,52.488904 C90.5220979,35.4996745 95.3924327,18.0033732 98,0 Z" id="Triangle-Copy" fill="url(#linearGradient-3)" transform="translate(73.500000, 63.500000) scale(-1, 1) translate(-73.500000, -63.500000) "></path>
                    <path d="M49,0 C49,58.6075503 49,96.9089784 49,114.904285 C40.4066774,101.43375 17.7153846,147.906057 -4.54747351e-13,114.904285 C18.2999644,118.425857 22.8308939,108.234744 13.5927885,84.3309444 C20.3238245,80.092147 27.2558936,69.4781335 34.3889957,52.488904 C41.5220979,35.4996745 46.3924327,18.0033732 49,0 Z" id="Triangle-Copy-2" fill="url(#linearGradient-4)"></path>
                </g>
                <path d="M88,661 C88,719.60755 88,757.908978 88,775.904285 C82.8726145,762.43375 77.1346538,782.53658 57.684243,821.309728 C54.1576824,756.217641 64.2629348,702.781065 88,661 Z" id="Triangle-Copy" stroke="#979797" fill="url(#linearGradient-5)" transform="translate(72.500000, 741.154864) scale(-1, 1) translate(-72.500000, -741.154864) "></path>
                <path d="M40.9549394,661 C40.9549394,719.60755 40.9549394,757.908978 40.9549394,775.904285 C35.8275539,762.43375 30.0895932,782.53658 10.6391823,821.309728 C7.1126218,756.217641 17.2178742,702.781065 40.9549394,661 Z" id="Triangle-Copy-3" stroke="#979797" fill="url(#linearGradient-5)"></path>
            </g>
            <g id="Arrow" transform="translate(414.459705, 310.313844) rotate(85.000000) translate(-414.459705, -310.313844) translate(365.459705, -100.686156)">
                <g id="Rectangle">
                    <use fill="url(#linearGradient-1)" fill-rule="evenodd" xlink:href="#path-6"></use>
                    <path stroke="#979797" stroke-width="1" d="M49,63.5 C44.8578644,63.5 41.5,66.8578644 41.5,71 L41.4999767,801.740184 C41.4999767,803.373891 42.6117292,804.798 44.1966026,805.194452 C46.104342,805.671667 48.03773,804.511999 48.5149455,802.604259 L49.0585404,800.431158 L49.4906108,802.629152 C49.8167432,804.288227 51.2712314,805.484635 52.9620568,805.484635 C54.9159688,805.484635 56.499946,803.900674 56.5,801.946753 L56.5,71 C56.5,66.8578644 53.1421356,63.5 49,63.5 Z"></path>
                </g>
                <g id="Group" stroke="#979797">
                    <path d="M98,0 C98,58.6075503 98,96.9089784 98,114.904285 C89.4066774,101.43375 66.7153846,147.906057 49,114.904285 C67.2999644,118.425857 71.8308939,108.234744 62.5927885,84.3309444 C69.3238245,80.092147 76.2558936,69.4781335 83.3889957,52.488904 C90.5220979,35.4996745 95.3924327,18.0033732 98,0 Z" id="Triangle-Copy" fill="url(#linearGradient-3)" transform="translate(73.500000, 63.500000) scale(-1, 1) translate(-73.500000, -63.500000) "></path>
                    <path d="M49,0 C49,58.6075503 49,96.9089784 49,114.904285 C40.4066774,101.43375 17.7153846,147.906057 -4.54747351e-13,114.904285 C18.2999644,118.425857 22.8308939,108.234744 13.5927885,84.3309444 C20.3238245,80.092147 27.2558936,69.4781335 34.3889957,52.488904 C41.5220979,35.4996745 46.3924327,18.0033732 49,0 Z" id="Triangle-Copy-2" fill="url(#linearGradient-4)"></path>
                </g>
                <path d="M88,661 C88,719.60755 88,757.908978 88,775.904285 C82.8726145,762.43375 77.1346538,782.53658 57.684243,821.309728 C54.1576824,756.217641 64.2629348,702.781065 88,661 Z" id="Triangle-Copy" stroke="#979797" fill="url(#linearGradient-5)" transform="translate(72.500000, 741.154864) scale(-1, 1) translate(-72.500000, -741.154864) "></path>
                <path d="M40.9549394,661 C40.9549394,719.60755 40.9549394,757.908978 40.9549394,775.904285 C35.8275539,762.43375 30.0895932,782.53658 10.6391823,821.309728 C7.1126218,756.217641 17.2178742,702.781065 40.9549394,661 Z" id="Triangle-Copy-3" stroke="#979797" fill="url(#linearGradient-5)"></path>
            </g>
            <g id="Arrow" transform="translate(551.677648, 259.704993) rotate(75.000000) translate(-551.677648, -259.704993) translate(502.677648, -151.295007)">
                <g id="Rectangle">
                    <use fill="url(#linearGradient-1)" fill-rule="evenodd" xlink:href="#path-7"></use>
                    <path stroke="#979797" stroke-width="1" d="M49,63.5 C44.8578644,63.5 41.5,66.8578644 41.5,71 L41.4999767,801.740184 C41.4999767,803.373891 42.6117292,804.798 44.1966026,805.194452 C46.104342,805.671667 48.03773,804.511999 48.5149455,802.604259 L49.0585404,800.431158 L49.4906108,802.629152 C49.8167432,804.288227 51.2712314,805.484635 52.9620568,805.484635 C54.9159688,805.484635 56.499946,803.900674 56.5,801.946753 L56.5,71 C56.5,66.8578644 53.1421356,63.5 49,63.5 Z"></path>
                </g>
                <g id="Group" stroke="#979797">
                    <path d="M98,0 C98,58.6075503 98,96.9089784 98,114.904285 C89.4066774,101.43375 66.7153846,147.906057 49,114.904285 C67.2999644,118.425857 71.8308939,108.234744 62.5927885,84.3309444 C69.3238245,80.092147 76.2558936,69.4781335 83.3889957,52.488904 C90.5220979,35.4996745 95.3924327,18.0033732 98,0 Z" id="Triangle-Copy" fill="url(#linearGradient-3)" transform="translate(73.500000, 63.500000) scale(-1, 1) translate(-73.500000, -63.500000) "></path>
                    <path d="M49,0 C49,58.6075503 49,96.9089784 49,114.904285 C40.4066774,101.43375 17.7153846,147.906057 -4.54747351e-13,114.904285 C18.2999644,118.425857 22.8308939,108.234744 13.5927885,84.3309444 C20.3238245,80.092147 27.2558936,69.4781335 34.3889957,52.488904 C41.5220979,35.4996745 46.3924327,18.0033732 49,0 Z" id="Triangle-Copy-2" fill="url(#linearGradient-4)"></path>
                </g>
                <path d="M88,661 C88,719.60755 88,757.908978 88,775.904285 C82.8726145,762.43375 77.1346538,782.53658 57.684243,821.309728 C54.1576824,756.217641 64.2629348,702.781065 88,661 Z" id="Triangle-Copy" stroke="#979797" fill="url(#linearGradient-5)" transform="translate(72.500000, 741.154864) scale(-1, 1) translate(-72.500000, -741.154864) "></path>
                <path d="M40.9549394,661 C40.9549394,719.60755 40.9549394,757.908978 40.9549394,775.904285 C35.8275539,762.43375 30.0895932,782.53658 10.6391823,821.309728 C7.1126218,756.217641 17.2178742,702.781065 40.9549394,661 Z" id="Triangle-Copy-3" stroke="#979797" fill="url(#linearGradient-5)"></path>
            </g>
            <g id="Arrow" transform="translate(432.397279, 309.932488) rotate(66.000000) translate(-432.397279, -309.932488) translate(383.397279, -101.067512)">
                <g id="Rectangle">
                    <use fill="url(#linearGradient-1)" fill-rule="evenodd" xlink:href="#path-8"></use>
                    <path stroke="#979797" stroke-width="1" d="M49,63.5 C44.8578644,63.5 41.5,66.8578644 41.5,71 L41.4999767,801.740184 C41.4999767,803.373891 42.6117292,804.798 44.1966026,805.194452 C46.104342,805.671667 48.03773,804.511999 48.5149455,802.604259 L49.0585404,800.431158 L49.4906108,802.629152 C49.8167432,804.288227 51.2712314,805.484635 52.9620568,805.484635 C54.9159688,805.484635 56.499946,803.900674 56.5,801.946753 L56.5,71 C56.5,66.8578644 53.1421356,63.5 49,63.5 Z"></path>
                </g>
                <g id="Group" stroke="#979797">
                    <path d="M98,0 C98,58.6075503 98,96.9089784 98,114.904285 C89.4066774,101.43375 66.7153846,147.906057 49,114.904285 C67.2999644,118.425857 71.8308939,108.234744 62.5927885,84.3309444 C69.3238245,80.092147 76.2558936,69.4781335 83.3889957,52.488904 C90.5220979,35.4996745 95.3924327,18.0033732 98,0 Z" id="Triangle-Copy" fill="url(#linearGradient-3)" transform="translate(73.500000, 63.500000) scale(-1, 1) translate(-73.500000, -63.500000) "></path>
                    <path d="M49,0 C49,58.6075503 49,96.9089784 49,114.904285 C40.4066774,101.43375 17.7153846,147.906057 -4.54747351e-13,114.904285 C18.2999644,118.425857 22.8308939,108.234744 13.5927885,84.3309444 C20.3238245,80.092147 27.2558936,69.4781335 34.3889957,52.488904 C41.5220979,35.4996745 46.3924327,18.0033732 49,0 Z" id="Triangle-Copy-2" fill="url(#linearGradient-4)"></path>
                </g>
                <path d="M88,661 C88,719.60755 88,757.908978 88,775.904285 C82.8726145,762.43375 77.1346538,782.53658 57.684243,821.309728 C54.1576824,756.217641 64.2629348,702.781065 88,661 Z" id="Triangle-Copy" stroke="#979797" fill="url(#linearGradient-5)" transform="translate(72.500000, 741.154864) scale(-1, 1) translate(-72.500000, -741.154864) "></path>
                <path d="M40.9549394,661 C40.9549394,719.60755 40.9549394,757.908978 40.9549394,775.904285 C35.8275539,762.43375 30.0895932,782.53658 10.6391823,821.309728 C7.1126218,756.217641 17.2178742,702.781065 40.9549394,661 Z" id="Triangle-Copy-3" stroke="#979797" fill="url(#linearGradient-5)"></path>
            </g>
            <g id="Arrow" transform="translate(551.513811, 259.351174) rotate(58.000000) translate(-551.513811, -259.351174) translate(502.513811, -151.648826)">
                <g id="Rectangle">
                    <use fill="url(#linearGradient-1)" fill-rule="evenodd" xlink:href="#path-9"></use>
                    <path stroke="#979797" stroke-width="1" d="M49,63.5 C44.8578644,63.5 41.5,66.8578644 41.5,71 L41.4999767,801.740184 C41.4999767,803.373891 42.6117292,804.798 44.1966026,805.194452 C46.104342,805.671667 48.03773,804.511999 48.5149455,802.604259 L49.0585404,800.431158 L49.4906108,802.629152 C49.8167432,804.288227 51.2712314,805.484635 52.9620568,805.484635 C54.9159688,805.484635 56.499946,803.900674 56.5,801.946753 L56.5,71 C56.5,66.8578644 53.1421356,63.5 49,63.5 Z"></path>
                </g>
                <g id="Group" stroke="#979797">
                    <path d="M98,0 C98,58.6075503 98,96.9089784 98,114.904285 C89.4066774,101.43375 66.7153846,147.906057 49,114.904285 C67.2999644,118.425857 71.8308939,108.234744 62.5927885,84.3309444 C69.3238245,80.092147 76.2558936,69.4781335 83.3889957,52.488904 C90.5220979,35.4996745 95.3924327,18.0033732 98,0 Z" id="Triangle-Copy" fill="url(#linearGradient-3)" transform="translate(73.500000, 63.500000) scale(-1, 1) translate(-73.500000, -63.500000) "></path>
                    <path d="M49,0 C49,58.6075503 49,96.9089784 49,114.904285 C40.4066774,101.43375 17.7153846,147.906057 -4.54747351e-13,114.904285 C18.2999644,118.425857 22.8308939,108.234744 13.5927885,84.3309444 C20.3238245,80.092147 27.2558936,69.4781335 34.3889957,52.488904 C41.5220979,35.4996745 46.3924327,18.0033732 49,0 Z" id="Triangle-Copy-2" fill="url(#linearGradient-4)"></path>
                </g>
                <path d="M88,661 C88,719.60755 88,757.908978 88,775.904285 C82.8726145,762.43375 77.1346538,782.53658 57.684243,821.309728 C54.1576824,756.217641 64.2629348,702.781065 88,661 Z" id="Triangle-Copy" stroke="#979797" fill="url(#linearGradient-5)" transform="translate(72.500000, 741.154864) scale(-1, 1) translate(-72.500000, -741.154864) "></path>
                <path d="M40.9549394,661 C40.9549394,719.60755 40.9549394,757.908978 40.9549394,775.904285 C35.8275539,762.43375 30.0895932,782.53658 10.6391823,821.309728 C7.1126218,756.217641 17.2178742,702.781065 40.9549394,661 Z" id="Triangle-Copy-3" stroke="#979797" fill="url(#linearGradient-5)"></path>
            </g>
        </g>
    </g>
</svg>
