<?xml version="1.0" encoding="UTF-8" standalone="no"?>
<svg
   xmlns:dc="http://purl.org/dc/elements/1.1/"
   xmlns:cc="http://creativecommons.org/ns#"
   xmlns:rdf="http://www.w3.org/1999/02/22-rdf-syntax-ns#"
   xmlns:svg="http://www.w3.org/2000/svg"
   xmlns="http://www.w3.org/2000/svg"
   xmlns:xlink="http://www.w3.org/1999/xlink"
   width="79.258347mm"
   height="57.649818mm"
   viewBox="0 0 280.83666 204.27102"
   id="svg2"
   version="1.1">
  <defs
     id="defs4">
    <linearGradient
       id="linearGradient5602">
      <stop
         id="stop5604"
         offset="0"
         style="stop-color:#e45b00;stop-opacity:1" />
      <stop
         id="stop5606"
         offset="1"
         style="stop-color:#6b2c01;stop-opacity:1" />
    </linearGradient>
    <radialGradient
       xlink:href="#linearGradient5602"
       id="radialGradient5558"
       cx="-170.53273"
       cy="266.65872"
       fx="-170.53273"
       fy="266.65872"
       r="72.142853"
       gradientTransform="matrix(0.73047725,-1.3425537,1.4634486,2.2532301,-426.60094,-566.8678)"
       gradientUnits="userSpaceOnUse" />
    <radialGradient
       xlink:href="#linearGradient5602"
       id="radialGradient5560"
       cx="-128.31117"
       cy="412.73196"
       fx="-128.31117"
       fy="412.73196"
       r="84.285721"
       gradientTransform="matrix(1.0649983,-1.397852,1.2266635,2.0225569,-532.17428,-576.18887)"
       gradientUnits="userSpaceOnUse" />
  </defs>
  <metadata
     id="metadata7">
    <rdf:RDF>
      <cc:Work
         rdf:about="">
        <dc:format>image/svg+xml</dc:format>
        <dc:type
           rdf:resource="http://purl.org/dc/dcmitype/StillImage" />
        <dc:title></dc:title>
      </cc:Work>
    </rdf:RDF>
  </metadata>
  <g
     id="layer1"
     transform="matrix(0,1.2117771,-1,0,474.78306,231.80147)">
    <path
       style="opacity:1;fill:url(#radialGradient5560);fill-opacity:1;stroke:none;stroke-width:1;stroke-linecap:round;stroke-miterlimit:4;stroke-dasharray:none;stroke-opacity:1"
       d="m -107.00481,270.44286 c 46.549725,-10e-6 84.285725,-7.26624 84.285725,68.02085 0,75.2871 -37.736,136.31935 -84.285725,136.31935 -46.54971,0 -84.28571,-61.03225 -84.28571,-136.31935 0,-75.28708 37.736,-68.02085 84.28571,-68.02085 z"
       id="path5350" />
    <path
       style="opacity:1;fill:url(#radialGradient5558);fill-opacity:1;stroke:none;stroke-width:1;stroke-linecap:round;stroke-miterlimit:4;stroke-dasharray:none;stroke-opacity:1"
       d="m -106.29051,323.36764 c 0,0 -4.71011,-26.85855 -24.82165,-37.00266 -15.29115,-7.71274 -48.0355,4.48343 -48.0355,-14.17988 0,-43.21005 14.3839,-78.23871 72.14286,-78.23871 57.758959,0 72.142843,35.02866 72.142843,78.23871 0,17.55427 -32.620929,7.14999 -46.759964,14.90096 -20.664369,11.32815 -24.668589,36.28158 -24.668589,36.28158 z"
       id="path5350-4" />
  </g>
</svg>
