<?xml version="1.0" encoding="UTF-8"?>
<svg viewBox="0 0 134 763" version="1.1" xmlns="http://www.w3.org/2000/svg" xmlns:xlink="http://www.w3.org/1999/xlink">
    <!-- Generator: Sketch 47.1 (45422) - http://www.bohemiancoding.com/sketch -->
    <title>Bow</title>
    <desc>Created with Sketch.</desc>
    <defs>
        <linearGradient x1="-50.911111%" y1="54.5266617%" x2="95.7863184%" y2="47.0283237%" id="linearGradient-1">
            <stop stop-color="#947A5C" offset="0%"></stop>
            <stop stop-color="#E8BC61" offset="100%"></stop>
        </linearGradient>
        <linearGradient x1="50%" y1="0%" x2="50%" y2="100%" id="linearGradient-2">
            <stop stop-color="#9D865D" offset="0%"></stop>
            <stop stop-color="#4B4941" offset="100%"></stop>
        </linearGradient>
        <rect id="path-3" x="78.6296629" y="719.787971" width="26" height="18"></rect>
        <rect id="path-4" x="86.7785176" y="55.4100007" width="26" height="18"></rect>
    </defs>
    <g id="Page-1" stroke="none" stroke-width="1" fill="none" fill-rule="evenodd">
        <g id="Bow" transform="translate(1.000000, 1.000000)">
            <path d="M104.918934,760.713731 C104.918934,758.08994 82.1220587,710.151231 117.344715,704.139512 C152.567371,698.127793 111.622059,685.541856 111.622059,654.975449 C111.622059,624.409043 70.24775,556.781497 34.9150274,503.401231 C-0.417695158,450.020964 22.6607829,295.259197 39.7079962,255.080918 C67.5751837,189.401231 160.602527,212.237168 117.344715,87.8895119 C68.4498909,-52.6621346 76.9658087,6.76060569 79.1728399,51.9988869 C79.4746255,52.7324366 129.975214,110.034638 111.622059,156.080918 C93.2689031,202.127198 57.8837774,180.483262 24.9853399,250.006699 C-7.91309758,319.530137 -8.74122258,472.455918 24.9853399,520.198106 C46.9432467,551.28098 111.622059,613.323106 94.5908087,685.541856 C77.5595587,757.760606 95.041061,760.713731 104.918934,760.713731 Z" id="Oval" stroke="#979797" fill="url(#linearGradient-1)"></path>
            <path d="M98.5,735.5 L106,63.5" id="Line" stroke="#000000" stroke-width="2" stroke-linecap="square"></path>
            <g id="Rectangle" transform="translate(91.629663, 728.787971) rotate(16.000000) translate(-91.629663, -728.787971) ">
                <use fill="url(#linearGradient-2)" fill-rule="evenodd" xlink:href="#path-3"></use>
                <rect stroke="#939191" stroke-width="1" x="79.1296629" y="720.287971" width="25" height="17"></rect>
            </g>
            <g id="Rectangle-Copy" transform="translate(99.778518, 64.410001) rotate(-31.000000) translate(-99.778518, -64.410001) ">
                <use fill="url(#linearGradient-2)" fill-rule="evenodd" xlink:href="#path-4"></use>
                <rect stroke="#939191" stroke-width="1" x="87.2785176" y="55.9100007" width="25" height="17"></rect>
            </g>
        </g>
    </g>
</svg>
