<?xml version="1.0" encoding="UTF-8"?>
<svg  viewBox="0 0 343 343" version="1.1" xmlns="http://www.w3.org/2000/svg" xmlns:xlink="http://www.w3.org/1999/xlink">
    <!-- Generator: Sketch 47.1 (45422) - http://www.bohemiancoding.com/sketch -->
    <title>Shield Buckler</title>
    <desc>Created with Sketch.</desc>
    <defs>
        <linearGradient x1="100%" y1="50%" x2="1.13799426%" y2="50%" id="linearGradient-1">
            <stop stop-color="#EEEEEE" offset="0%"></stop>
            <stop stop-color="#ADA9A9" offset="100%"></stop>
        </linearGradient>
        <linearGradient x1="-2.22044605e-14%" y1="50%" x2="100%" y2="50%" id="linearGradient-2">
            <stop stop-color="#969696" offset="0%"></stop>
            <stop stop-color="#FFFFFF" offset="100%"></stop>
        </linearGradient>
        <linearGradient x1="100%" y1="50%" x2="0%" y2="50%" id="linearGradient-3">
            <stop stop-color="#FFFFFF" offset="0%"></stop>
            <stop stop-color="#707070" offset="100%"></stop>
        </linearGradient>
    </defs>
    <g id="Page-1" stroke="none" stroke-width="1" fill="none" fill-rule="evenodd">
        <g id="Shield-Buckler" transform="translate(1.000000, 1.000000)" stroke="#979797">
            <circle id="Oval" fill="url(#linearGradient-1)" cx="170.5" cy="170.5" r="170.5"></circle>
            <circle id="Oval-Copy" fill="url(#linearGradient-2)" cx="171" cy="171" r="141"></circle>
            <circle id="Oval-Copy-4" fill="" cx="171" cy="171" r="50"></circle>
            <circle id="Oval-Copy-17" fill="url(#linearGradient-3)" cx="171.5" cy="14.5" r="8.5"></circle>
            <circle id="Oval-Copy-18" fill="url(#linearGradient-3)" cx="170.5" cy="326.5" r="8.5"></circle>
            <circle id="Oval-Copy-19" fill="url(#linearGradient-3)" cx="13.5" cy="171.5" r="8.5"></circle>
            <circle id="Oval-Copy-20" fill="url(#linearGradient-3)" cx="327.5" cy="170.5" r="8.5"></circle>
            <circle id="Oval-Copy-21" fill="url(#linearGradient-3)" cx="273.5" cy="55.5" r="8.5"></circle>
            <circle id="Oval-Copy-22" fill="url(#linearGradient-3)" cx="60.5" cy="284.5" r="8.5"></circle>
            <circle id="Oval-Copy-23" fill="url(#linearGradient-3)" cx="66.5" cy="55.5" r="8.5"></circle>
            <circle id="Oval-Copy-24" fill="url(#linearGradient-3)" cx="273.5" cy="284.5" r="8.5"></circle>
        </g>
    </g>
</svg>