<?xml version="1.0" encoding="UTF-8"?>
<svg  viewBox="0 0 107 505" version="1.1" xmlns="http://www.w3.org/2000/svg" xmlns:xlink="http://www.w3.org/1999/xlink">
    <!-- Generator: Sketch 47.1 (45422) - http://www.bohemiancoding.com/sketch -->
    <title>Club</title>
    <desc>Created with Sketch.</desc>
    <defs>
        <linearGradient x1="-1.11022302e-14%" y1="50%" x2="97.9033801%" y2="50%" id="linearGradient-1">
            <stop stop-color="#4C4338" offset="0%"></stop>
            <stop stop-color="#BB862C" offset="100%"></stop>
        </linearGradient>
        <path d="M42.302904,-12.5307738 C47.7667553,-12.346692 40.357373,27.6648716 37.1090634,47.6190989 C35.5580933,25.6388074 36.8390528,-12.7148555 42.302904,-12.5307738 Z" id="path-2"></path>
        <path d="M42.302904,32.4692262 C47.7667553,32.653308 40.357373,72.6648716 37.1090634,92.6190989 C35.5580933,70.6388074 36.8390528,32.2851445 42.302904,32.4692262 Z" id="path-3"></path>
        <path d="M32.2260992,8.41018419 C37.6899504,8.59426592 30.2805681,48.6058296 27.0322585,68.5600568 C25.4812885,46.5797654 26.7622479,8.22610245 32.2260992,8.41018419 Z" id="path-4"></path>
        <path d="M49.302904,25.4692262 C54.7667553,25.653308 47.357373,65.6648716 44.1090634,85.6190989 C42.5580933,63.6388074 43.8390528,25.2851445 49.302904,25.4692262 Z" id="path-5"></path>
    </defs>
    <g id="Page-1" stroke="none" stroke-width="1" fill="none" fill-rule="evenodd">
        <g id="Club">
            <path d="M60.9450832,495.098744 C64.9121601,495.038063 66.8491475,504.335101 68.5093421,495.098744 C76.0417272,453.192933 64.3505443,334.109073 74.4489895,294.482148 C77.9732742,280.652636 73.0458698,207.779705 84.7779756,180.805331 C87.4263248,174.716266 93.3233376,182.021889 95.5585938,170.761719 C97.7938499,159.501549 91.0230387,165.228905 89.9266199,159.501549 C85.6139318,136.973389 92.2153724,100.76485 98.0368156,83.2923285 C98.9213725,80.6374131 107.386864,75.3339616 106.160465,64.6649567 C104.934067,53.9959518 99.1987951,59.359259 95.5585938,54.4703135 C81.3886159,35.4394293 82.4033447,9.03701555 60.9450832,9.00005603 C34.8894914,8.95517811 52.8451919,98.2024901 38.8308631,104.136143 C33.3016581,106.477202 38.2490737,149.249198 38.8308631,180.805331 C39.1150322,196.218605 22.8182652,199.696047 34.4937975,212.096602 C40.0963297,218.047038 40.760642,281.286826 44.0830869,294.482148 C55.09718,338.225389 42.2051984,472.592332 54.069904,503.498683 C55.6593271,507.638969 58.3501094,495.138437 60.9450832,495.098744 Z" id="Oval" stroke="#979797" fill="url(#linearGradient-1)"></path>
            <g id="Rectangle" transform="translate(40.375643, 17.543832) rotate(118.000000) translate(-40.375643, -17.543832) ">
                <use fill="#D8D8D8" fill-rule="evenodd" xlink:href="#path-2"></use>
                <path stroke="#979797" stroke-width="1" d="M37.3435008,43.1472112 C38.070447,38.7795778 39.1001863,32.6070225 39.4926099,30.1980681 C39.9107598,27.6311885 40.2885528,25.2598871 40.6391638,22.9927222 C42.2409235,12.6352203 43.2486231,4.60767618 43.6104168,-1.36715748 C44.0248581,-8.21143616 43.4939431,-11.990363 42.2860682,-12.0310573 C40.2488225,-12.0996938 38.4404727,-3.91134369 37.574349,9.26531767 C36.8851716,19.7500303 36.8197802,32.5721098 37.3435008,43.1472112 Z"></path>
            </g>
            <g id="Rectangle-Copy" transform="translate(40.375643, 62.543832) rotate(118.000000) translate(-40.375643, -62.543832) ">
                <use fill="#D8D8D8" fill-rule="evenodd" xlink:href="#path-3"></use>
                <path stroke="#979797" stroke-width="1" d="M37.3435008,88.1472112 C38.070447,83.7795778 39.1001863,77.6070225 39.4926099,75.1980681 C39.9107598,72.6311885 40.2885528,70.2598871 40.6391638,67.9927222 C42.2409235,57.6352203 43.2486231,49.6076762 43.6104168,43.6328425 C44.0248581,36.7885638 43.4939431,33.009637 42.2860682,32.9689427 C40.2488225,32.9003062 38.4404727,41.0886563 37.574349,54.2653177 C36.8851716,64.7500303 36.8197802,77.5721098 37.3435008,88.1472112 Z"></path>
            </g>
            <g id="Rectangle-Copy-2" transform="translate(30.298839, 38.484790) rotate(455.000000) translate(-30.298839, -38.484790) ">
                <use fill="#D8D8D8" fill-rule="evenodd" xlink:href="#path-4"></use>
                <path stroke="#979797" stroke-width="1" d="M27.2666959,64.0881691 C27.9936421,59.7205358 29.0233815,53.5479805 29.415805,51.1390261 C29.8339549,48.5721465 30.211748,46.2008451 30.5623589,43.9336802 C32.1641187,33.5761783 33.1718182,25.5486341 33.533612,19.5738005 C33.9480532,12.7295218 33.4171382,8.95059498 32.2092633,8.90990066 C30.1720177,8.84126414 28.3636679,17.0296143 27.4975442,30.2062756 C26.8083667,40.6909883 26.7429754,53.5130678 27.2666959,64.0881691 Z"></path>
            </g>
            <g id="Rectangle-Copy-3" transform="translate(47.375643, 55.543832) rotate(422.000000) translate(-47.375643, -55.543832) ">
                <use fill="#D8D8D8" fill-rule="evenodd" xlink:href="#path-5"></use>
                <path stroke="#979797" stroke-width="1" d="M44.3435008,81.1472112 C45.070447,76.7795778 46.1001863,70.6070225 46.4926099,68.1980681 C46.9107598,65.6311885 47.2885528,63.2598871 47.6391638,60.9927222 C49.2409235,50.6352203 50.2486231,42.6076762 50.6104168,36.6328425 C51.0248581,29.7885638 50.4939431,26.009637 49.2860682,25.9689427 C47.2488225,25.9003062 45.4404727,34.0886563 44.574349,47.2653177 C43.8851716,57.7500303 43.8197802,70.5721098 44.3435008,81.1472112 Z"></path>
            </g>
        </g>
    </g>
</svg>