<?xml version="1.0" encoding="UTF-8" standalone="no"?>
<svg
   xmlns:dc="http://purl.org/dc/elements/1.1/"
   xmlns:cc="http://creativecommons.org/ns#"
   xmlns:rdf="http://www.w3.org/1999/02/22-rdf-syntax-ns#"
   xmlns:svg="http://www.w3.org/2000/svg"
   xmlns="http://www.w3.org/2000/svg"
   xmlns:xlink="http://www.w3.org/1999/xlink"
   version="1.1"
   id="svg2"
   viewBox="0 0 381.359 569.99981"
   height="160.86661mm"
   width="107.62798mm">
  <defs
     id="defs4">
    <linearGradient
       id="linearGradient4217">
      <stop
         id="stop4219"
         offset="0"
         style="stop-color:#ffcb78;stop-opacity:1" />
      <stop
         id="stop4221"
         offset="1"
         style="stop-color:#d38d5f;stop-opacity:1" />
    </linearGradient>
    <linearGradient
       id="linearGradient4175">
      <stop
         id="stop4177"
         offset="0"
         style="stop-color:#f2f2f2;stop-opacity:1;" />
      <stop
         id="stop4179"
         offset="1"
         style="stop-color:#efffa6;stop-opacity:1" />
    </linearGradient>
    <radialGradient
       gradientUnits="userSpaceOnUse"
       gradientTransform="matrix(1.8050001,-0.09677961,0.15643462,2.9176036,479.48686,20.183002)"
       r="117.81859"
       fy="-39.524242"
       fx="-573.76196"
       cy="-39.524242"
       cx="-573.76196"
       id="radialGradient4181"
       xlink:href="#linearGradient4175" />
    <linearGradient
       gradientUnits="userSpaceOnUse"
       y2="131.15045"
       x2="-384.20883"
       y1="-180.27812"
       x1="-764.2088"
       id="linearGradient4223"
       xlink:href="#linearGradient4217" />
  </defs>
  <metadata
     id="metadata7">
    <rdf:RDF>
      <cc:Work
         rdf:about="">
        <dc:format>image/svg+xml</dc:format>
        <dc:type
           rdf:resource="http://purl.org/dc/dcmitype/StillImage" />
        <dc:title></dc:title>
      </cc:Work>
    </rdf:RDF>
  </metadata>
  <g
     transform="translate(1164.1215,167.59063)"
     id="layer1">
    <rect
       y="115.43616"
       x="-231.35167"
       height="236.42857"
       width="355"
       id="rect4146"
       style="opacity:0.822;fill:#4d4d4d;fill-opacity:0;stroke:none;stroke-width:1;stroke-linecap:round;stroke-miterlimit:4;stroke-dasharray:none;stroke-opacity:1" />
    <g
       transform="translate(-400,5.7142857)"
       id="g4288">
      <path
         style="opacity:1;fill:url(#linearGradient4223);fill-opacity:1;stroke:none;stroke-width:1;stroke-linecap:round;stroke-miterlimit:4;stroke-dasharray:none;stroke-opacity:1"
         d="m -751.45678,254.91636 -1.22238,43.82505 -9.74564,58.15442 c 0,0 97.08068,42.15067 144.70404,39.69583 65.74741,-3.38909 208.80527,-31.40047 208.80527,-31.40047 0,0 -26.70049,-63.51313 -26.86998,-131.94066 24.08323,-76.53605 74.90896,-74.19456 42.5699,-260.548048 -18.83906,-96.244712 -98.92315,-146.007402 -189.96544,-146.007402 -76.82836,0 -113.76492,60.95628 -149.70445,139.453499 -35.93953,78.497213 -31.00727,166.603131 -31.00727,166.603131"
         id="path4135-3" />
      <path
         style="opacity:1;fill:url(#radialGradient4181);fill-opacity:1;stroke:none;stroke-width:1;stroke-linecap:round;stroke-miterlimit:4;stroke-dasharray:none;stroke-opacity:1"
         d="m -450.38167,6.6025372 c 3.5132,78.2248678 -61.95876,28.5102948 -125.85749,18.3835198 -63.89874,-10.126773 -118.44213,26.353176 -105.5403,-55.055814 9.32404,-58.833593 27.23366,-125.988473 135.45963,-113.744223 108.22595,12.2443 93.26556,90.908646 95.93816,150.4165172 z"
         id="path4172" />
      <path
         style="opacity:1;fill:#ffffff;fill-opacity:1;stroke:none;stroke-width:1;stroke-linecap:round;stroke-miterlimit:4;stroke-dasharray:none;stroke-opacity:1"
         d="m -584.30844,-2.3457859 c -46.63724,0 -60.77812,19.3124989 -69.97433,26.2765089 19.77612,0.93437 47.14545,-4.23831 76.51368,0.41601 37.07477,5.87568 74.67713,25.07343 99.02929,24.88086 -2.2831,-23.99363 -51.60058,-51.5733789 -105.56864,-51.5733789 z"
         id="path4172-0" />
      <path
         style="fill:none;fill-opacity:1;fill-rule:evenodd;stroke:#000000;stroke-width:4;stroke-linecap:round;stroke-linejoin:miter;stroke-miterlimit:4;stroke-dasharray:none;stroke-opacity:0.34104046"
         d="m -679.90108,176.47055 c 0,0 61.73229,-21.85323 94.26352,-18.0684 34.74555,4.04246 92.83531,42.70712 92.83531,42.70712"
         id="path4229" />
      <g
         id="g4283">
        <path
           transform="matrix(0.60947624,0.53025973,-0.61876732,0.52229763,474.93171,691.71391)"
           d="m -1442.7802,289.72186 c 0.4313,0.39954 -0.6925,0.93842 -0.9,0.97143 -2.3778,0.3783 -3.3083,-2.80153 -2.9857,-4.57143 0.9724,-5.33343 7.5966,-6.72453 11.9858,-5.14285 9.2691,3.34026 11.2392,15.05947 7.4428,23.14286 -6.6848,14.23326 -25.1989,16.86743 -38.0429,9.88569 -20.2433,-11.00387 -23.6143,-38.01798 -12.4714,-56.68572 16.2992,-27.30588 53.5185,-31.48232 79.0715,-15.19994 35.4237,22.57202 40.4723,71.70135 18.0713,105.20001 -29.8233,44.59804 -92.5672,50.58499 -135.0714,21.0856 -54.8296,-38.05365 -61.8205,-116.11654 -24.2427,-168.68572"
           id="path4235"
           style="fill:none;fill-rule:evenodd;stroke:#7f3300;stroke-width:2.1157577;stroke-linecap:butt;stroke-linejoin:miter;stroke-miterlimit:4;stroke-dasharray:none;stroke-opacity:1" />
        <path
           transform="matrix(-0.52238445,-0.59461561,0.69386509,-0.44766332,-1616.5018,-519.55726)"
           d="m -1391.7206,377.61575 c 0.4313,0.39954 -0.6925,0.93842 -0.9,0.97143 -2.3778,0.3783 -3.3084,-2.80153 -2.9857,-4.57143 0.9724,-5.33343 7.5966,-6.72453 11.9857,-5.14285 9.2692,3.34026 11.2393,15.05947 7.4429,23.14287 -6.6848,14.23325 -25.1989,16.86742 -38.0429,9.88568 -20.2433,-11.00387 -23.6144,-38.01798 -12.4714,-56.68572 16.2992,-27.30588 53.5185,-31.48232 79.0715,-15.19994 35.4236,22.57202 40.4723,71.70135 18.0713,105.20001 -29.8233,44.59804 -92.5672,50.58499 -135.0714,21.0856 -54.8297,-38.05365 -61.8206,-116.11654 -24.2428,-168.68572"
           id="path4235-4"
           style="fill:none;fill-rule:evenodd;stroke:#7f3300;stroke-width:2.1157577;stroke-linecap:butt;stroke-linejoin:miter;stroke-miterlimit:4;stroke-dasharray:none;stroke-opacity:1" />
        <path
           transform="matrix(0.73981216,-0.38990545,0.45498599,0.63399048,308.94596,-653.9927)"
           d="m -1391.7206,377.61575 c 0.4313,0.39954 -0.6925,0.93842 -0.9,0.97143 -2.3778,0.3783 -3.3084,-2.80153 -2.9857,-4.57143 0.9724,-5.33343 7.5966,-6.72453 11.9857,-5.14285 9.2692,3.34026 11.2393,15.05947 7.4429,23.14287 -6.6848,14.23325 -25.1989,16.86742 -38.0429,9.88568 -20.2433,-11.00387 -23.6144,-38.01798 -12.4714,-56.68572 16.2992,-27.30588 53.5185,-31.48232 79.0715,-15.19994 35.4236,22.57202 40.4723,71.70135 18.0713,105.20001 -29.8233,44.59804 -92.5672,50.58499 -135.0714,21.0856 -54.8297,-38.05365 -61.8206,-116.11654 -24.2428,-168.68572"
           id="path4235-4-4"
           style="fill:none;fill-rule:evenodd;stroke:#7f3300;stroke-width:2.1157577;stroke-linecap:butt;stroke-linejoin:miter;stroke-miterlimit:4;stroke-dasharray:none;stroke-opacity:1" />
      </g>
    </g>
  </g>
</svg>
