<?xml version="1.0" encoding="UTF-8"?>
<svg viewBox="0 0 37 680" version="1.1" xmlns="http://www.w3.org/2000/svg" xmlns:xlink="http://www.w3.org/1999/xlink">
    <!-- Generator: Sketch 47.1 (45422) - http://www.bohemiancoding.com/sketch -->
    <title>Javelin</title>
    <desc>Created with Sketch.</desc>
    <defs>
        <linearGradient x1="0%" y1="50%" x2="100%" y2="50%" id="linearGradient-1">
            <stop stop-color="#AF7146" offset="0%"></stop>
            <stop stop-color="#FBFBFB" offset="100%"></stop>
        </linearGradient>
        <path d="M31.5,157 L31.5,157 L31.5,157 C35.0593901,157 37.9448459,159.885456 37.9448459,163.444846 C37.9448459,163.463152 37.9447679,163.481458 37.9446119,163.499764 L33.5612405,677.886395 L33.5612405,677.886395 C33.5391629,680.477187 31.4210137,682.559541 28.8302219,682.537464 C27.2032851,682.5236 25.6997001,681.667749 24.8571009,680.275936 L17.4885367,668.104479 L17.4885367,668.104479 C16.7079868,666.81516 16.3075318,665.33157 16.3333008,663.824607 L24.8888663,163.49905 L24.8888663,163.49905 C24.9505487,159.891888 27.8923112,157 31.5,157 Z" id="path-2"></path>
        <linearGradient x1="82.5068982%" y1="48.8285435%" x2="34.7981689%" y2="48.6037195%" id="linearGradient-3">
            <stop stop-color="#FFFFFF" offset="0%"></stop>
            <stop stop-color="#E3E3E3" offset="39.2851012%"></stop>
            <stop stop-color="#AEAEAE" offset="100%"></stop>
        </linearGradient>
        <linearGradient x1="82.928129%" y1="50.0477612%" x2="22.9084451%" y2="50%" id="linearGradient-4">
            <stop stop-color="#FFFFFF" offset="0%"></stop>
            <stop stop-color="#E3E3E3" offset="39.2851012%"></stop>
            <stop stop-color="#AEAEAE" offset="100%"></stop>
        </linearGradient>
        <linearGradient x1="0%" y1="50%" x2="98.8161671%" y2="50%" id="linearGradient-5">
            <stop stop-color="#878787" offset="0%"></stop>
            <stop stop-color="#FAFAFA" offset="100%"></stop>
        </linearGradient>
        <rect id="path-6" x="20" y="163" width="23" height="10"></rect>
    </defs>
    <g id="Page-1" stroke="none" stroke-width="1" fill="none" fill-rule="evenodd">
        <g id="Javelin" transform="translate(-12.000000, -3.000000)">
            <g id="Pole">
                <use fill="url(#linearGradient-1)" fill-rule="evenodd" xlink:href="#path-2"></use>
                <path stroke="#979797" stroke-width="1" d="M31.5,157.5 C28.1651208,157.5 25.4458113,160.173207 25.3887932,163.507599 L16.8332277,663.833156 C16.8090692,665.245934 17.1844958,666.636799 17.9162614,667.845536 L25.2848256,680.016993 C26.0376187,681.260463 27.3809482,682.025096 28.8344825,682.037482 C31.149142,682.057206 33.0415342,680.196794 33.0612587,677.882134 L37.4446301,163.495503 C37.44481,163.470175 37.44481,163.470175 37.4448459,163.444846 C37.4448459,160.161598 34.7832477,157.5 31.5,157.5 Z"></path>
            </g>
            <g id="Blade" transform="translate(31.261662, 86.886252) rotate(-6.000000) translate(-31.261662, -86.886252) translate(8.761662, 1.886252)" stroke="#979797" fill-rule="nonzero">
                <path d="M15.9677146,1.55398095 C28.0875643,27.864338 32.7351047,63.2815977 31.8759859,75.9097929 C31.016867,88.5379882 25.4534129,110.464073 20.4425811,167.857304 C23.0867159,168.120661 24.6062589,168.464932 25.7094852,168.680843 C26.4567903,165.084993 39.9677146,78.1634917 39.9677146,61.3558672 C39.9677146,43.2626911 29.1068493,24.8023118 15.9677146,1.55398095 Z" id="Path-Copy" fill="url(#linearGradient-3)" transform="translate(27.967715, 85.117412) rotate(3.000000) translate(-27.967715, -85.117412) "></path>
                <path d="M16.2789675,1.55496943 C19.9601062,27.367683 10.0666404,48.9306467 5.00546297,61.7428697 C12.4912759,74.3592301 16.5813282,106.881362 11.4358541,164.297109 C11.651418,166.20929 14.7732305,167.190017 20.8012917,167.23929 C26.8352438,117.649186 33.4228436,74.150299 33.9820319,63.9904604 C34.5412203,53.8306218 24.9892663,21.4507671 16.2789675,1.55496943 Z" id="Path" fill="url(#linearGradient-4)" transform="translate(19.505463, 84.397130) rotate(3.000000) translate(-19.505463, -84.397130) "></path>
            </g>
            <g id="Rectangle">
                <use fill="url(#linearGradient-5)" fill-rule="evenodd" xlink:href="#path-6"></use>
                <rect stroke="#979797" stroke-width="1" x="20.5" y="163.5" width="22" height="9"></rect>
            </g>
        </g>
    </g>
</svg>
