<?xml version="1.0" encoding="UTF-8"?>
<svg  viewBox="0 0 222 147" version="1.1" xmlns="http://www.w3.org/2000/svg" xmlns:xlink="http://www.w3.org/1999/xlink">
    <!-- Generator: Sketch 47.1 (45422) - http://www.bohemiancoding.com/sketch -->
    <title>Rock</title>
    <desc>Created with Sketch.</desc>
    <defs>
        <linearGradient x1="50%" y1="106.43319%" x2="23.3638872%" y2="6.81842672%" id="linearGradient-1">
            <stop stop-color="#616161" offset="0%"></stop>
            <stop stop-color="#FFFFFF" offset="100%"></stop>
        </linearGradient>
    </defs>
    <g id="Page-1" stroke="none" stroke-width="1" fill="none" fill-rule="evenodd">
        <path d="M92.9492188,146 C143.483273,146 220.921875,144.970332 220.921875,104.929688 C220.921875,64.8890431 143.483273,1 92.9492188,1 C42.4151641,1 1.44921875,33.4593556 1.44921875,73.5 C1.44921875,113.540644 42.4151641,146 92.9492188,146 Z" id="Rock" stroke="#979797" fill="url(#linearGradient-1)"></path>
    </g>
</svg>