<?xml version="1.0" encoding="UTF-8"?>
<svg width="28px" height="671px" viewBox="0 0 28 671" version="1.1" xmlns="http://www.w3.org/2000/svg" xmlns:xlink="http://www.w3.org/1999/xlink">
    <!-- Generator: Sketch 47.1 (45422) - http://www.bohemiancoding.com/sketch -->
    <title>Spear</title>
    <desc>Created with Sketch.</desc>
    <defs>
        <linearGradient x1="0%" y1="50%" x2="100%" y2="50%" id="linearGradient-1">
            <stop stop-color="#AF7146" offset="0%"></stop>
            <stop stop-color="#FBFBFB" offset="100%"></stop>
        </linearGradient>
        <path d="M20.4396668,100 L20.4396668,100 L20.4396668,100 C24.0649395,100 27.0038037,102.938864 27.0038037,106.564137 C27.0038037,106.581514 27.0037347,106.598891 27.0035967,106.616267 L22.5352937,669.240881 L22.5352937,669.240881 C22.5145285,671.855521 20.3781103,673.958273 17.7634701,673.937507 C16.0687708,673.924048 14.5105267,673.005758 13.6777315,671.529736 L6.02710829,657.97 L6.02710829,657.97 C5.32900501,656.732703 4.97297503,655.331824 4.99561281,653.911352 L13.7177591,106.615636 L13.7177591,106.615636 C13.7762575,102.944991 16.7685566,100 20.4396668,100 Z" id="path-2"></path>
        <linearGradient x1="82.5068982%" y1="48.8285435%" x2="34.7981689%" y2="48.6037195%" id="linearGradient-3">
            <stop stop-color="#FFFFFF" offset="0%"></stop>
            <stop stop-color="#E3E3E3" offset="39.2851012%"></stop>
            <stop stop-color="#AEAEAE" offset="100%"></stop>
        </linearGradient>
        <linearGradient x1="82.928129%" y1="50.0477612%" x2="22.9084451%" y2="50%" id="linearGradient-4">
            <stop stop-color="#FFFFFF" offset="0%"></stop>
            <stop stop-color="#E3E3E3" offset="39.2851012%"></stop>
            <stop stop-color="#AEAEAE" offset="100%"></stop>
        </linearGradient>
        <linearGradient x1="0%" y1="50%" x2="98.8161671%" y2="50%" id="linearGradient-5">
            <stop stop-color="#878787" offset="0%"></stop>
            <stop stop-color="#FAFAFA" offset="100%"></stop>
        </linearGradient>
        <path d="M11.7165704,103 C22.5658104,104.751673 20.8575971,104.626405 28.3418685,103 C26.0788913,108.407652 41.339316,128.822686 26.2589183,110.550337 C21.9535927,112.441923 18.4327251,112.054507 11.7165704,110.514051 C-0.455550166,128.243022 10.3912656,107.678447 11.7165704,103 Z" id="path-6"></path>
    </defs>
    <g id="Page-1" stroke="none" stroke-width="1" fill="none" fill-rule="evenodd">
        <g id="Spear" transform="translate(-5.000000, -3.000000)">
            <g id="Pole">
                <use fill="url(#linearGradient-1)" fill-rule="evenodd" xlink:href="#path-2"></use>
                <path stroke="#979797" stroke-width="1" d="M20.4396668,100.5 C17.0415925,100.5 14.2718432,103.22596 14.2176957,106.623603 L5.49554933,653.919319 C5.47432641,655.251012 5.80810451,656.564336 6.46257634,657.724302 L14.1131995,671.284038 C14.8580428,672.604176 16.2517198,673.425485 17.767441,673.437523 C20.1059475,673.456095 22.0167373,671.575417 22.0353095,669.23691 L26.5036125,106.612296 C26.5037719,106.588217 26.5037719,106.588217 26.5038037,106.564137 C26.5038037,103.215007 23.7887972,100.5 20.4396668,100.5 Z"></path>
            </g>
            <g id="Blade" transform="translate(19.000000, 55.500000) rotate(-6.000000) translate(-19.000000, -55.500000) translate(6.000000, 2.000000)" stroke="#979797" fill-rule="nonzero">
                <path d="M15.3445801,3.07698607 C13.7414151,25.9878555 12.8785636,75.1710107 11.8369881,106.138972 C14.4811229,106.292584 15.3767423,106.38773 16.4799686,106.513667 C16.4861933,79.412623 31.6865316,62.4349659 15.3445801,3.07698607 Z" id="Path-Copy" fill="url(#linearGradient-3)" transform="translate(17.376328, 54.795327) rotate(3.000000) translate(-17.376328, -54.795327) "></path>
                <path d="M14.9508566,1.09424706 C-4.94939877,53.6461979 6.70875868,76.1721737 6.72461225,104.316207 C6.94017612,105.45566 8.53165233,105.58687 11.4990409,104.709839 C11.9770014,90.3625607 14.4876997,14.9971571 14.9508566,1.09424706 Z" id="Path" fill="url(#linearGradient-4)" transform="translate(9.133826, 53.188129) rotate(3.000000) translate(-9.133826, -53.188129) "></path>
            </g>
            <g id="Rectangle">
                <use fill="url(#linearGradient-5)" fill-rule="evenodd" xlink:href="#path-6"></use>
                <path stroke="#979797" stroke-width="1" d="M12.0678587,103.563179 C11.6980284,104.706546 10.9994305,106.3547 9.38036978,110.031411 L9.37288913,110.048399 C7.86935295,113.462783 7.04545745,115.416293 6.69918351,116.484104 C6.75090634,116.426057 6.80500685,116.364178 6.86138158,116.298493 C7.7739986,115.235166 9.23510772,113.244976 11.3043699,110.231048 L11.496865,109.950675 L11.8283507,110.026706 C19.188966,111.714979 22.2041544,111.785705 26.0577947,110.092571 L26.4039087,109.940503 L26.6445458,110.232074 C29.0740583,113.175823 30.6720638,115.061887 31.7035856,116.20064 C31.7788709,116.283752 31.8511981,116.362942 31.9206024,116.438254 C31.9085253,116.412031 31.896239,116.385416 31.8837412,116.358404 C31.8704656,116.32971 30.5366956,113.516281 30.0981341,112.544693 C29.6970592,111.656153 29.3481614,110.840184 29.0409717,110.062602 C27.9530678,107.308815 27.4365604,105.17627 27.6517058,103.665137 C26.5322221,103.914664 24.7018992,104.324142 24.2107895,104.422695 C23.0439843,104.656844 22.2108919,104.759073 21.2952813,104.766762 C19.7001478,104.780157 19.199052,104.714079 12.0678587,103.563179 Z"></path>
            </g>
        </g>
    </g>
</svg>